{
  "typeName": "siteMetadata",
  "title": "Les mots de tête",
  "description": "Short texts and poems from the mind to the keyboard.",
  "author": "@cyrilf",
  "backgroundColor": "",
  "hasBackgroundPattern": true,
  "heroImage": "/uploads/heroImage.svg",
  "footer": "Made by <a href='https://cyrilf.com'>cyrilf</a>, built with <a href='https://www.gatsbyjs.org'>Gatsby</a>"
}
